{
    "lookup_id": "ChIJ5Z2mAfwzdA0R8FocaWWWnUg",
    "provider_id": 1,
    "title": "Tchorro",
	"vicinity": "El Hoceima",
	"category": {
		"id": 119,
		"slug": "bakery",
		"icon": "place-categories/d85b1486e1fd40dd9cc04e5d82cd796d.png"
	},
    "latitude": 35.237641,
    "longitude": -3.934683199999999
  }
