{
  "type": "service_account",
  "project_id": "api-6015683645739740254-799449",
  "private_key_id": "c0175dbedc084c7e95b6a80ecdc4ec696880454c",
  "private_key": "-----BEGIN PRIVATE KEY-----\nMIIEvAIBADANBgkqhkiG9w0BAQEFAASCBKYwggSiAgEAAoIBAQDlWDvhzPS46xMG\nxsJoTU6VQCM3QCAZpHlmjLS++lO7sLAgmWDzUBawUuo2Kch4aYrIbBDkJUNQTr1V\nANa7xJam7ZU4e98E1lOQc18KrESJRkBotCDFkROWAf2Akn70bzGTWzQqn4+T1Qov\nTHY9Wu+NZoIuDsZOuiehUBn7xDvouzW2OGwZ4utWm04Uitz3X6n4oclQ5+5tIoGo\nc1XaQ7wHISKDpiLde7ORuEcK5yZ4J2MCVXfQ2UCbUj0I8cOIpku8G/pnYsMdXExh\nyAgFa1EYDxD92o0M6/kZGQ5B7dSLhxdWKQPzbkwaKNhB+zssGYmgZa8lK47Nwh7Q\n22E/YPm7AgMBAAECgf8aXKfjeeElq83YfgUPg3t+DznOX9aaL90eaXI/CWmk9If/\nbi3xvB6ZhVrLgl9aDY1SEJpB5pgcM9uInZ0bfKn9pPbwipoUlNx826tSQTAh+tv8\nlg8S1p8G48aMuBoRHvuGzX+fYSGYnLnNbfUCRm4xi1Dk36VlSQ2Y2IWYEFyifwPf\n8SS8ps9pAV0fOzopucLUtUVZtuIBZ3P9LvIRpV7+yym4wK2e3rJO7wWu5epIGaYk\nFvwOvBUqhTnUELc9e3Ax+wkF51AimTcmZA9eqxMUUXRU2jemNr3pvBSE8EZEYLue\n4Xr9TilPQFvLddjLU63L3uZPkEFgzZo9GWiBEAECgYEA+vWH2TlF/N4UcE+dyqib\nd4jx803SQVUsWJMj8yA8ZlIZpkdxiyRw9EENqAab5cVM3cpWtTfNsXP95yXrwKH8\n/IjMBSmnXq8S+0GUeEifvrm6cN4+SAF+awybT2riCGQpBDSfIkkSKGcHBp5wbM9m\nlvxD3FsMNUqDT4HM6Xk0m8ECgYEA6fOO/fNr+TjTWhiQqFKy2hiet5oX2Ezh0jwW\ngjv4/OjeIbwZjo003P6ov574Q09QlOSri5QR/UO3ISBfpQZinT+xDgyD2bEP2lua\nbykqLbT3cftm14mK2hmC+46+RJqCM/vZld93QjjY53bv1iE6flO2W20jDcaJuwDh\nrgXzJHsCgYEA5JHAWz5o2jjC0NAS3UPX5XVbOMiGWW7j5wCM26FeoarhJasoZRyZ\nrD2b3I+4afvbWJ4zfvYGaDtG48KMCHUBYFiPyZv4jqpSVXmTakJrDGFIyAgDHb4O\nkB15T0n/+LiRCv2KesWmvhmoMoUXzGLSA25buFVMtzTYiA+mvHbiTYECgYEAkVUE\nFy4IfSGX6fgopOf6wxFYR6Yp+eyIvBknwm+PFU1z8HDxT2TY2hA4tBEFGItE+7mx\n91tccYCHWsTJpbJ5wEW4r4mGvs0HlBYjsbpYwVwR+3S5RlvjLel7PNpHyEZTbAef\n+0J+y1yVIfT4uISb2a4XMmRxyjTzin/Zsklv6dECgYAXXZW+mq+mE+pCFJO7awUZ\nDH4au7nOYhBCjH+F8rrfjf9MVbQzdgRPoFNY7QGu72tb0HREbRr7l7mE/ToJNBGw\ngPN77QaDG6chJ6HzP7W133YwC01uyq/6ICC2aaVUFtdGO8ZgpIlhCbWAa9tQZApt\nQHXU7DMWiKL8TEKYRCgRtA==\n-----END PRIVATE KEY-----\n",
  "client_email": "googleplay@api-6015683645739740254-799449.iam.gserviceaccount.com",
  "client_id": "106665020273247856997",
  "auth_uri": "https://accounts.google.com/o/oauth2/auth",
  "token_uri": "https://oauth2.googleapis.com/token",
  "auth_provider_x509_cert_url": "https://www.googleapis.com/oauth2/v1/certs",
  "client_x509_cert_url": "https://www.googleapis.com/robot/v1/metadata/x509/googleplay%40api-6015683645739740254-799449.iam.gserviceaccount.com"
}
