[
	{
		"featureType": "administrative",
		"elementType": "geometry",
		"stylers": [
			{
				"visibility": "off"
			}
		]
	},
	{
		"featureType": "poi",
		"stylers": [
			{
				"saturation": -100
			},
			{
				"visibility": "off"
			}
		]
	},
	{
		"featureType": "road",
		"stylers": [
			{
				"saturation": -45
			}
		]
	},
	{
		"featureType": "road",
		"elementType": "labels.icon",
		"stylers": [
			{
				"visibility": "off"
			}
		]
	},
	{
		"featureType": "transit",
		"stylers": [
			{
				"visibility": "off"
			}
		]
	},
	{
		"featureType": "transit",
		"elementType": "labels.icon",
		"stylers": [
			{
				"saturation": -55
			}
		]
	}
]
